Introdução à análise geoespacial com R
…
---

# readr

## **Formato .csv**

```r
# import sites
si <- readr::read_csv(here::here("03_dados", "tabelas", "ATLANTIC_AMPHIBIANS_sites.csv"))
si
```

```
## # A tibble: 1,163 x 25
##    id    reference_number species_number record sampled_habitat active_methods
##    <chr>            <dbl>          <dbl> <chr>  <chr>           <chr>         
##  1 amp1…             1001             19 ab     fo,ll           as            
##  2 amp1…             1002             16 co     fo,la,ll        as            
##  3 amp1…             1002             14 co     fo,la,ll        as            
##  4 amp1…             1002             13 co     fo,la,ll        as            
##  5 amp1…             1003             30 co     fo,ll,br        as            
##  6 amp1…             1004             42 co     tp,pp,la,ll,is  <NA>          
##  7 amp1…             1005             23 co     sp              as            
##  8 amp1…             1005             19 co     sp,la,sw        as,sb,tr      
##  9 amp1…             1005             13 ab     fo              <NA>          
## 10 amp1…             1006              1 ab     fo              <NA>          
## # … with 1,153 more rows, and 19 more variables: passive_methods <chr>,
## #   complementary_methods <chr>, period <chr>, month_start <dbl>,
## #   year_start <dbl>, month_finish <dbl>, year_finish <dbl>,
## #   effort_months <dbl>, country <chr>, state <chr>, state_abbreviation <chr>,
## #   municipality <chr>, site <chr>, latitude <dbl>, longitude <dbl>,
## #   coordinate_precision <chr>, altitude <dbl>, temperature <dbl>,
## #   precipitation <dbl>
```
…
---

# readr

## **Formato .csv**

```r
# import sites
si <- readr::read_csv("./03_dados/tabelas/ATLANTIC_AMPHIBIANS_sites.csv")
si
```

```
## # A tibble: 1,163 x 25
##    id    reference_number species_number record sampled_habitat active_methods
##    <chr>            <dbl>          <dbl> <chr>  <chr>           <chr>         
##  1 amp1…             1001             19 ab     fo,ll           as            
##  2 amp1…             1002             16 co     fo,la,ll        as            
##  3 amp1…             1002             14 co     fo,la,ll        as            
##  4 amp1…             1002             13 co     fo,la,ll        as            
##  5 amp1…             1003             30 co     fo,ll,br        as            
##  6 amp1…             1004             42 co     tp,pp,la,ll,is  <NA>          
##  7 amp1…             1005             23 co     sp              as            
##  8 amp1…             1005             19 co     sp,la,sw        as,sb,tr      
##  9 amp1…             1005             13 ab     fo              <NA>          
## 10 amp1…             1006              1 ab     fo              <NA>          
## # … with 1,153 more rows, and 19 more variables: passive_methods <chr>,
## #   complementary_methods <chr>, period <chr>, month_start <dbl>,
## #   year_start <dbl>, month_finish <dbl>, year_finish <dbl>,
## #   effort_months <dbl>, country <chr>, state <chr>, state_abbreviation <chr>,
## #   municipality <chr>, site <chr>, latitude <dbl>, longitude <dbl>,
## #   coordinate_precision <chr>, altitude <dbl>, temperature <dbl>,
## #   precipitation <dbl>
```

---

# 4.3 readr

## **Formato .txt**

```r
# import sites
si <- readr::read_tsv(here::here("03_dados", "tabelas", "ATLANTIC_AMPHIBIANS_sites.txt"))
si
```

```
## # A tibble: 1,163 x 25
##    id    reference_number species_number record sampled_habitat active_methods
##    <chr>            <dbl>          <dbl> <chr>  <chr>           <chr>         
##  1 amp1…             1001             19 ab     fo,ll           as            
##  2 amp1…             1002             16 co     fo,la,ll        as            
##  3 amp1…             1002             14 co     fo,la,ll        as            
##  4 amp1…             1002             13 co     fo,la,ll        as            
##  5 amp1…             1003             30 co     fo,ll,br        as            
##  6 amp1…             1004             42 co     tp,pp,la,ll,is  <NA>          
##  7 amp1…             1005             23 co     sp              as            
##  8 amp1…             1005             19 co     sp,la,sw        as,sb,tr      
##  9 amp1…             1005             13 ab     fo              <NA>          
## 10 amp1…             1006              1 ab     fo              <NA>          
## # … with 1,153 more rows, and 19 more variables: passive_methods <chr>,
## #   complementary_methods <chr>, period <chr>, month_start <dbl>,
## #   year_start <dbl>, month_finish <dbl>, year_finish <dbl>,
## #   effort_months <dbl>, country <chr>, state <chr>, state_abbreviation <chr>,
## #   municipality <chr>, site <chr>, latitude <dbl>, longitude <dbl>,
## #   coordinate_precision <chr>, altitude <dbl>, temperature <dbl>,
## #   precipitation <dbl>
```
…
# 4.4 readxl e writexl

## **Formato .xlsx**

### O argumento `sheet` define a aba a ser importada (número ou nome)

```r
# import sites
si <- readxl::read_xlsx(here::here("03_dados", "tabelas", "ATLANTIC_AMPHIBIANS_sites.xlsx"), 
                        sheet = 1)
si
```

```
## # A tibble: 1,163 x 25
##    id    reference_number species_number record sampled_habitat active_methods
##    <chr>            <dbl>          <dbl> <chr>  <chr>           <chr>         
##  1 amp1…             1001             19 ab     fo,ll           as            
##  2 amp1…             1002             16 co     fo,la,ll        as            
##  3 amp1…             1002             14 co     fo,la,ll        as            
##  4 amp1…             1002             13 co     fo,la,ll        as            
##  5 amp1…             1003             30 co     fo,ll,br        as            
##  6 amp1…             1004             42 co     tp,pp,la,ll,is  NA            
##  7 amp1…             1005             23 co     sp              as            
##  8 amp1…             1005             19 co     sp,la,sw        as,sb,tr      
##  9 amp1…             1005             13 ab     fo              NA            
## 10 amp1…             1006              1 ab     fo              NA            
## # … with 1,153 more rows, and 19 more variables: passive_methods <chr>,
## #   complementary_methods <chr>, period <chr>, month_start <chr>,
## #   year_start <chr>, month_finish <chr>, year_finish <chr>,
## #   effort_months <chr>, country <chr>, state <chr>, state_abbreviation <chr>,
## #   municipality <chr>, site <chr>, latitude <dbl>, longitude <dbl>,
## #   coordinate_precision <chr>, altitude <dbl>, temperature <chr>,
## #   precipitation <chr>
```
…
# 4.6 tidyr

## **2 separate**

### Separar os dados de "period" em quatro colunas dos seus valores

```r
si_separate <- si %>% 
  tidyr::separate("period", c("mo", "da", "tw", "ni"), remove = FALSE)
si_separate[, c(1, 9:13)]
```

```
## # A tibble: 1,163 x 6
##    id      period      mo    da    tw    ni   
##    <chr>   <chr>       <chr> <chr> <chr> <chr>
##  1 amp1001 mo,da,tw,ni mo    da    tw    ni   
##  2 amp1002 mo,da,tw,ni mo    da    tw    ni   
##  3 amp1003 mo,da,tw,ni mo    da    tw    ni   
##  4 amp1004 mo,da,tw,ni mo    da    tw    ni   
##  5 amp1005 mo,da,ni    mo    da    ni    <NA> 
##  6 amp1006 <NA>        <NA>  <NA>  <NA>  <NA> 
##  7 amp1007 <NA>        <NA>  <NA>  <NA>  <NA> 
##  8 amp1008 tw,ni       tw    ni    <NA>  <NA> 
##  9 amp1009 mo,da,tw,ni mo    da    tw    ni   
## 10 amp1010 mo,da,tw,ni mo    da    tw    ni   
## # … with 1,153 more rows
```
…
# 4.6 tidyr

## **3 separate_rows()**

### Separar os dados de "period" na mesma coluna e repetindo os valores

```r
si_separate_row <- si %>% 
  tidyr::separate_rows("period")
si_separate_row[, c(1, 9:13)]
```

```
## # A tibble: 2,650 x 6
##    id      period month_start year_start month_finish year_finish
##    <chr>   <chr>        <dbl>      <dbl>        <dbl>       <dbl>
##  1 amp1001 mo               9       2000            1        2002
##  2 amp1001 da               9       2000            1        2002
##  3 amp1001 tw               9       2000            1        2002
##  4 amp1001 ni               9       2000            1        2002
##  5 amp1002 mo              12       2007            5        2009
##  6 amp1002 da              12       2007            5        2009
##  7 amp1002 tw              12       2007            5        2009
##  8 amp1002 ni              12       2007            5        2009
##  9 amp1003 mo              12       2007            5        2009
## 10 amp1003 da              12       2007            5        2009
## # … with 2,640 more rows
```
…
# 4.6 tidyr

## **4 drop_na()**

### Remove as linhas com NA de todas as colunas

```r
si_drop_na <- si %>% 
  tidyr::drop_na()
si_drop_na
```

```
## # A tibble: 40 x 25
##    id    reference_number species_number record sampled_habitat active_methods
##    <chr>            <dbl>          <dbl> <chr>  <chr>           <chr>         
##  1 amp1…             1011             14 co     fo,tp,ll,is     as            
##  2 amp1…             1028             29 co     fo              as            
##  3 amp1…             1031             33 co     fo,sw           as            
##  4 amp1…             1077             29 co     fo,pp,la,sw,is  as,sb         
##  5 amp1…             1086              9 co     fo,la,is        as            
##  6 amp1…             1086             18 co     fo,la,is        as            
##  7 amp1…             1086             20 co     fo,la,is        as            
##  8 amp1…             1086             18 co     fo,la,is        as            
##  9 amp1…             1087             49 co     fo,tp,la,sw,is  as            
## 10 amp1…             1130             16 co     fo,ll           as,tr,qs      
## # … with 30 more rows, and 19 more variables: passive_methods <chr>,
## #   complementary_methods <chr>, period <chr>, month_start <dbl>,
## #   year_start <dbl>, month_finish <dbl>, year_finish <dbl>,
## #   effort_months <dbl>, country <chr>, state <chr>, state_abbreviation <chr>,
## #   municipality <chr>, site <chr>, latitude <dbl>, longitude <dbl>,
## #   coordinate_precision <chr>, altitude <dbl>, temperature <dbl>,
## #   precipitation <dbl>
```
…
# 4.6 tidyr

## **4 drop_na()**

### Remove as linhas com NA da coluna "active_methods"

```r
si_drop_na <- si %>% 
  tidyr::drop_na(active_methods)
si_drop_na
```

```
## # A tibble: 1,005 x 25
##    id    reference_number species_number record sampled_habitat active_methods
##    <chr>            <dbl>          <dbl> <chr>  <chr>           <chr>         
##  1 amp1…             1001             19 ab     fo,ll           as            
##  2 amp1…             1002             16 co     fo,la,ll        as            
##  3 amp1…             1002             14 co     fo,la,ll        as            
##  4 amp1…             1002             13 co     fo,la,ll        as            
##  5 amp1…             1003             30 co     fo,ll,br        as            
##  6 amp1…             1005             23 co     sp              as            
##  7 amp1…             1005             19 co     sp,la,sw        as,sb,tr      
##  8 amp1…             1008              5 co     pp              as            
##  9 amp1…             1008              2 co     pp              as            
## 10 amp1…             1008              1 co     pp              as            
## # … with 995 more rows, and 19 more variables: passive_methods <chr>,
## #   complementary_methods <chr>, period <chr>, month_start <dbl>,
## #   year_start <dbl>, month_finish <dbl>, year_finish <dbl>,
## #   effort_months <dbl>, country <chr>, state <chr>, state_abbreviation <chr>,
## #   municipality <chr>, site <chr>, latitude <dbl>, longitude <dbl>,
## #   coordinate_precision <chr>, altitude <dbl>, temperature <dbl>,
## #   precipitation <dbl>
```
…
# 4.6 tidyr

## **5 replace_na()**

### Substituir os NAs da coluna "active_methods" por 0 

```r
si_replace_na <- si %>% 
  tidyr::replace_na(list(active_methods = 0))
si_replace_na
```

```
## # A tibble: 1,163 x 25
##    id    reference_number species_number record sampled_habitat active_methods
##    <chr>            <dbl>          <dbl> <chr>  <chr>           <chr>         
##  1 amp1…             1001             19 ab     fo,ll           as            
##  2 amp1…             1002             16 co     fo,la,ll        as            
##  3 amp1…             1002             14 co     fo,la,ll        as            
##  4 amp1…             1002             13 co     fo,la,ll        as            
##  5 amp1…             1003             30 co     fo,ll,br        as            
##  6 amp1…             1004             42 co     tp,pp,la,ll,is  0             
##  7 amp1…             1005             23 co     sp              as            
##  8 amp1…             1005             19 co     sp,la,sw        as,sb,tr      
##  9 amp1…             1005             13 ab     fo              0             
## 10 amp1…             1006              1 ab     fo              0             
## # … with 1,153 more rows, and 19 more variables: passive_methods <chr>,
## #   complementary_methods <chr>, period <chr>, month_start <dbl>,
## #   year_start <dbl>, month_finish <dbl>, year_finish <dbl>,
## #   effort_months <dbl>, country <chr>, state <chr>, state_abbreviation <chr>,
## #   municipality <chr>, site <chr>, latitude <dbl>, longitude <dbl>,
## #   coordinate_precision <chr>, altitude <dbl>, temperature <dbl>,
## #   precipitation <dbl>
```
…
## **6 pivot_wider()** 

### Long para wide

1. **id_cols**: variável id
2. **names_from**: variável categórica que irá definir os nomes das colunas
3. **values_from**: variável numérica que irá preencher os dados
4. **values_fill**: valor para preencher os NAs

```r
si[, c("id", "record", "species_number")]
```

```
## # A tibble: 1,163 x 3
##    id      record species_number
##    <chr>   <chr>           <dbl>
##  1 amp1001 ab                 19
##  2 amp1002 co                 16
##  3 amp1003 co                 14
##  4 amp1004 co                 13
##  5 amp1005 co                 30
##  6 amp1006 co                 42
##  7 amp1007 co                 23
##  8 amp1008 co                 19
##  9 amp1009 ab                 13
## 10 amp1010 ab                  1
## # … with 1,153 more rows
```
…
```r
si_wide <- si %>% 
  tidyr::pivot_wider(id_cols = id, 
                     names_from = state_abbreviation,
                     values_from = species_number, 
                     values_fill = list(species_number = 0))
si_wide
```

```
## # A tibble: 1,163 x 24
##    id    `BR-PI` `BR-CE` `BR-RN` `BR-PB` `BR-PE` `BR-AL` `BR-SE` `BR-BA` `BR-GO`
##    <chr>   <dbl>   <dbl>   <dbl>   <dbl>   <dbl>   <dbl>   <dbl>   <dbl>   <dbl>
##  1 amp1…      19       0       0       0       0       0       0       0       0
##  2 amp1…       0      16       0       0       0       0       0       0       0
##  3 amp1…       0      14       0       0       0       0       0       0       0
##  4 amp1…       0      13       0       0       0       0       0       0       0
##  5 amp1…       0      30       0       0       0       0       0       0       0
##  6 amp1…       0      42       0       0       0       0       0       0       0
##  7 amp1…       0      23       0       0       0       0       0       0       0
##  8 amp1…       0      19       0       0       0       0       0       0       0
##  9 amp1…       0      13       0       0       0       0       0       0       0
## 10 amp1…       0       0       1       0       0       0       0       0       0
## # … with 1,153 more rows, and 14 more variables: `BR-MG` <dbl>, `BR-ES` <dbl>,
## #   `BR-RJ` <dbl>, `BR-SP` <dbl>, `BR-MS` <dbl>, `BR-PR` <dbl>, `BR-SC` <dbl>,
## #   `BR-RS` <dbl>, `PY-14` <dbl>, `PY-13` <dbl>, `PY-7` <dbl>, `PY-2` <dbl>,
## #   `PY-4` <dbl>, `AR-N` <dbl>
```
…
## **6 pivot_wider()** 

### Long para wide

1. **id_cols**: variável id
2. **names_from**: variável categórica que irá definir os nomes das colunas
3. **values_from**: variável numérica que irá preencher os dados
4. **values_fill**: valor para preencher os NAs

```r
sp[1:1000, c("id", "species", "individuals")]
```

```
## # A tibble: 1,000 x 3
##    id      species                          individuals
##    <chr>   <chr>                                  <dbl>
##  1 amp1001 Dendropsophus soaresi                      1
##  2 amp1001 Scinax sp.                                 1
##  3 amp1009 Corythomantis greeningi                    1
##  4 amp1009 Leptodactylus sp. (aff. andreae)           1
##  5 amp1009 Odontophrynus carvalhoi                    1
##  6 amp1009 Phyllomedusa nordestina                    1
##  7 amp1009 Rhinella granulosa                         1
##  8 amp1011 Physalaemus cuvieri                        1
##  9 amp1013 Leptodactylus mystaceus                    1
## 10 amp1014 Leptodactylus troglodytes                  1
## # … with 990 more rows
```
…
```r
sp_wide <- sp[1:1000, ] %>% 
  tidyr::replace_na(list(individuals = 0)) %>% 
  tidyr::pivot_wider(id_cols = id, 
                     names_from = species, 
                     values_from = individuals, 
                     values_fill = list(individuals = 0))
sp_wide
```

```
## # A tibble: 281 x 310
##    id    `Dendropsophus … `Scinax sp.` `Corythomantis … `Leptodactylus …
##    <chr>            <dbl>        <dbl>            <dbl>            <dbl>
##  1 amp1…                1            1                0                0
##  2 amp1…                0            0                1                1
##  3 amp1…                0            0                0                0
##  4 amp1…                0            0                0                0
##  5 amp1…                0            0                0                0
##  6 amp1…                0            0                0                0
##  7 amp1…                0            0                0                0
##  8 amp1…                0            0                0                0
##  9 amp1…                0            0                0                0
## 10 amp1…                0            0                0                0
## # … with 271 more rows, and 305 more variables: `Odontophrynus
## #   carvalhoi` <dbl>, `Phyllomedusa nordestina` <dbl>, `Rhinella
## #   granulosa` <dbl>, `Physalaemus cuvieri` <dbl>, `Leptodactylus
## #   mystaceus` <dbl>, `Leptodactylus troglodytes` <dbl>, `Pseudopaludicola
## #   sp.` <dbl>, `Elachistocleis cesarii` <dbl>, `Leptodactylus
## #   macrosternum` <dbl>, `Physalaemus kroyeri` <dbl>, `Leptodactylus
## #   vastus` <dbl>, `Leptodactylus natalensis` <dbl>, `Physalaemus sp.` <dbl>,
## #   `Rhinella jimi` <dbl>, `Dermatonotus muelleri` <dbl>, `Dendropsophus
## #   elegans` <dbl>, `Hypsiboas albomarginatus` <dbl>, `Scinax eurydice` <dbl>,
…
1. **cols**: coluna do id
2. **names_to**: nome da coluna que receberá os nomes
3. **values_to**: nome da coluna que receberá os valores

```r
si_long <- si_wide %>% 
  tidyr::pivot_longer(cols = -id, 
                      names_to = "record", 
                      values_to = "species_number")
si_long
```

```
## # A tibble: 26,749 x 3
##    id      record species_number
##    <chr>   <chr>           <dbl>
##  1 amp1001 BR-PI              19
##  2 amp1001 BR-CE               0
##  3 amp1001 BR-RN               0
##  4 amp1001 BR-PB               0
##  5 amp1001 BR-PE               0
##  6 amp1001 BR-AL               0
##  7 amp1001 BR-SE               0
##  8 amp1001 BR-BA               0
##  9 amp1001 BR-GO               0
## 10 amp1001 BR-MG               0
## # … with 26,739 more rows
```
…
