Introdução à análise geoespacial com R
…
---

# 6.4 Importar dados

## Dados de pacotes: geobr

```r
# list all datasets available in the geobr package
geobr::list_geobr()
```

```
## # A tibble: 22 x 4
##    `function`       geography             years                           source
##    <chr>            <chr>                 <chr>                           <chr> 
##  1 `read_country`   Country               1872, 1900, 1911, 1920, 1933, … IBGE  
##  2 `read_region`    Region                2000, 2001, 2010, 2013, 2014, … IBGE  
##  3 `read_state`     States                1872, 1900, 1911, 1920, 1933, … IBGE  
##  4 `read_meso_regi… Meso region           2000, 2001, 2010, 2013, 2014, … IBGE  
##  5 `read_micro_reg… Micro region          2000, 2001, 2010, 2013, 2014, … IBGE  
##  6 `read_intermedi… Intermediate region   2017, 2019                      IBGE  
##  7 `read_immediate… Immediate region      2017, 2019                      IBGE  
##  8 `read_weighting… Census weighting are… 2010                            IBGE  
##  9 `read_census_tr… Census tract (setor … 2000, 2010                      IBGE  
## 10 `read_municipal… Municipality seats (… 1872, 1900, 1911, 1920, 1933, … IBGE  
## # … with 12 more rows
```
…
---

# 6.4 Importar dados

## Add as duas colunas de `lon` e `lat`

```r
# .csv para .shp
si_ve <- si %>% 
  dplyr::mutate(lon = longitude, lat = latitude)
si_ve
```

```
## # A tibble: 1,163 x 27
##    id    reference_number species_number record sampled_habitat active_methods
##    <chr>            <dbl>          <dbl> <chr>  <chr>           <chr>         
##  1 amp1…             1001             19 ab     fo,ll           as            
##  2 amp1…             1002             16 co     fo,la,ll        as            
##  3 amp1…             1002             14 co     fo,la,ll        as            
##  4 amp1…             1002             13 co     fo,la,ll        as            
##  5 amp1…             1003             30 co     fo,ll,br        as            
##  6 amp1…             1004             42 co     tp,pp,la,ll,is  <NA>          
##  7 amp1…             1005             23 co     sp              as            
##  8 amp1…             1005             19 co     sp,la,sw        as,sb,tr      
##  9 amp1…             1005             13 ab     fo              <NA>          
## 10 amp1…             1006              1 ab     fo              <NA>          
## # … with 1,153 more rows, and 21 more variables: passive_methods <chr>,
## #   complementary_methods <chr>, period <chr>, month_start <dbl>,
## #   year_start <dbl>, month_finish <dbl>, year_finish <dbl>,
## #   effort_months <dbl>, country <chr>, state <chr>, state_abbreviation <chr>,
## #   municipality <chr>, site <chr>, latitude <dbl>, longitude <dbl>,
## #   coordinate_precision <chr>, altitude <dbl>, temperature <dbl>,
## #   precipitation <dbl>, lon <dbl>, lat <dbl>
```
…
```r
# .csv para .shp
si_ve <- si %>% 
  dplyr::mutate(lon = longitude, lat = latitude) %>% 
  sf::st_as_sf(coords = c("lon", "lat"), crs = 4326)
si_ve
```

```
## Simple feature collection with 1163 features and 25 fields
## geometry type:  POINT
## dimension:      XY
## bbox:           xmin: -56.74194 ymin: -33.51083 xmax: -34.79667 ymax: -3.51525
## geographic CRS: WGS 84
## # A tibble: 1,163 x 26
##    id    reference_number species_number record sampled_habitat active_methods
##  * <chr>            <dbl>          <dbl> <chr>  <chr>           <chr>         
##  1 amp1…             1001             19 ab     fo,ll           as            
##  2 amp1…             1002             16 co     fo,la,ll        as            
##  3 amp1…             1002             14 co     fo,la,ll        as            
##  4 amp1…             1002             13 co     fo,la,ll        as            
##  5 amp1…             1003             30 co     fo,ll,br        as            
##  6 amp1…             1004             42 co     tp,pp,la,ll,is  <NA>          
##  7 amp1…             1005             23 co     sp              as            
##  8 amp1…             1005             19 co     sp,la,sw        as,sb,tr      
##  9 amp1…             1005             13 ab     fo              <NA>          
## 10 amp1…             1006              1 ab     fo              <NA>          
## # … with 1,153 more rows, and 20 more variables: passive_methods <chr>,
## #   complementary_methods <chr>, period <chr>, month_start <dbl>,
## #   year_start <dbl>, month_finish <dbl>, year_finish <dbl>,
## #   effort_months <dbl>, country <chr>, state <chr>, state_abbreviation <chr>,
## #   municipality <chr>, site <chr>, latitude <dbl>, longitude <dbl>,
## #   coordinate_precision <chr>, altitude <dbl>, temperature <dbl>,
## #   precipitation <dbl>, geometry <POINT [°]>
```
…
